{
    "KPlugin": {
        "Category": "Tools",
        "Description": "Highlight areas of the desktop that have been recently updated",
        "Description[ar]": "أبرِز مناطق سطح المكتب التي حُدِّثت مؤخّرًا",
        "Description[az]": "İş masasının yenilənən sahəsini işıqlandırır",
        "Description[bg]": "Осветяване на областите на работния плот, които са наскоро актуализирани",
        "Description[ca@valencia]": "Ressalta les àrees de l'escriptori que s'han actualitzat darrerament",
        "Description[ca]": "Ressalta les àrees de l'escriptori que s'han actualitzat darrerament",
        "Description[cs]": "Zvýrazní ty oblasti na obrazovce, které byly právě vykresleny",
        "Description[de]": "Hebt die Bereiche der Arbeitsfläche farbig hervor, die kürzlich aktualisiert worden sind",
        "Description[en_GB]": "Highlight areas of the desktop that have been recently updated",
        "Description[es]": "Resaltar áreas del escritorio que se han actualizado recientemente",
        "Description[et]": "Töölaua hiljuti uuendatud alade esiletõstmine",
        "Description[eu]": "Nabarmendu berriki eguneratu diren mahaigaineko eremuak",
        "Description[fi]": "Korosta äskettäin päivittyneet työpöydän alueet",
        "Description[fr]": "Mettre en valeur les zones de bureau ayant été récemment mises à jour",
        "Description[hu]": "Kiemeli az asztalon az éppen felfrissített területet",
        "Description[ia]": "Evidentia areas del scriptorio que ha essite actualisate recentemente",
        "Description[id]": "Sorot wilayah desktop yang baru saja diperbarui",
        "Description[it]": "Evidenzia aree del desktop che sono state aggiornate di recente",
        "Description[ja]": "更新されたデスクトップの領域を強調表示します",
        "Description[ko]": "최근에 다시 그려진 바탕 화면의 영역을 표시합니다",
        "Description[nl]": "Accentueert gebieden van het bureaublad die recentelijk zijn geactualiseerd",
        "Description[nn]": "Marker nyleg oppdaterte område på skjermflata",
        "Description[pl]": "Podświetla obszary pulpitu, które zostały ostatnio uaktualnione",
        "Description[pt]": "Realçar as áreas do ecrã que foram alteradas recentemente",
        "Description[pt_BR]": "Realça as áreas da área de trabalho que foram recentemente atualizadas",
        "Description[ro]": "Evidențiază zonele biroului ce au fost actualizate recent",
        "Description[ru]": "Подсветка обновляемых областей экрана",
        "Description[sk]": "Zvýrazní oblasti plochy, ktoré boli práve aktualizované",
        "Description[sl]": "Poudari območja namizja, ki so bili pred kratkim posodobljeni",
        "Description[sv]": "Markera områden på skärmen som nyligen har uppdaterats",
        "Description[ta]": "சமீபத்தில் மாற்றப்பட்ட திரையின் பகுதிகளை முன்னிலைப்படுத்தும்",
        "Description[tr]": "Masaüstünün yeni güncellenen alanlarını vurgula",
        "Description[uk]": "Підсвічує області екрана, у яких спостерігалося оновлення",
        "Description[vi]": "Tô sáng những vùng bàn làm việc mới được cập nhật",
        "Description[x-test]": "xxHighlight areas of the desktop that have been recently updatedxx",
        "Description[zh_CN]": "突出显示最近更新过的桌面区域",
        "Description[zh_TW]": "突顯桌面上剛被更新的區域",
        "EnabledByDefault": false,
        "Id": "showpaint",
        "License": "GPL",
        "Name": "Show Paint",
        "Name[ar]": "أظهر الطلاء",
        "Name[az]": "Yenilənən sahə",
        "Name[bg]": "Оцветено показване",
        "Name[ca@valencia]": "Mostra el pintat",
        "Name[ca]": "Mostra el pintat",
        "Name[cs]": "Zobrazit kreslení",
        "Name[de]": "Zeichnungsbereiche hervorheben",
        "Name[en_GB]": "Show Paint",
        "Name[es]": "Mostrar pintado",
        "Name[et]": "Joonistatud alade näitamine",
        "Name[eu]": "Erakutsi pintura",
        "Name[fi]": "Näytä näytönpiirto",
        "Name[fr]": "Afficher la peinture",
        "Name[hu]": "Rajzkiemelés",
        "Name[ia]": "Monstra pictura",
        "Name[id]": "Show Paint",
        "Name[it]": "Mostra il ridisegno",
        "Name[ja]": "描画を表示",
        "Name[ka]": "საღებავის ჩვენება",
        "Name[ko]": "그리기 영역 표시",
        "Name[nl]": "Intekening tonen",
        "Name[nn]": "Vis oppteikning",
        "Name[pl]": "Pokaż rysowane",
        "Name[pt]": "Mostrar a Pintura",
        "Name[pt_BR]": "Mostrar pintura",
        "Name[ro]": "Arată vopseaua",
        "Name[ru]": "Подсветка отрисовки",
        "Name[sk]": "Zobraziť kresbu",
        "Name[sl]": "Pokaži barvo",
        "Name[sv]": "Visa uppritning",
        "Name[ta]": "திரைப்புதுப்பிபுகளைக் காட்டு",
        "Name[tr]": "Boyamayı Göster",
        "Name[uk]": "Показ малювання",
        "Name[vi]": "Hiện sơn",
        "Name[x-test]": "xxShow Paintxx",
        "Name[zh_CN]": "突出显示画面更新区域",
        "Name[zh_TW]": "顯示塗繪"
    },
    "X-KDE-ConfigModule": "kwin_showpaint_config"
}
