{
    "KPackageStructure": "KWin/Effect",
    "KPlugin": {
        "Authors": [
            {
                "Email": "mgraesslin@kde.org, vlad.zahorodnii@kde.org",
                "Name": "Martin Flöser, Vlad Zahorodnii",
                "Name[ar]": "مارتن فلوسر، فلاد زاهورودني",
                "Name[bg]": "Martin Flöser, Vlad Zahorodnii",
                "Name[ca@valencia]": "Martin Flöser, Vlad Zahorodnii",
                "Name[ca]": "Martin Flöser, Vlad Zahorodnii",
                "Name[es]": "Martin Flöser, Vlad Zahorodnii",
                "Name[et]": "Martin Flöser, Vlad Zahorodnii",
                "Name[eu]": "Martin Flöser, Vlad Zahorodnii",
                "Name[fr]": "Martin Flöser, Vlad Zahorodnii",
                "Name[it]": "Martin Flöser, Vlad Zahorodnii",
                "Name[ka]": "Vlad Zahorodnii",
                "Name[nl]": "Martin Flöser, Vlad Zahorodnii",
                "Name[pt]": "Martin Flöser, Vlad Zahorodnii",
                "Name[sl]": "Martin Flöser, Vlad Zahorodnii",
                "Name[ta]": "மார்ட்டின் ஃபுலோசர், விலாட் ஜாஹொரிடுனி",
                "Name[tr]": "Martin Flöser, Vlad Zahorodnii",
                "Name[uk]": "Martin Flöser, Влад Завгородній",
                "Name[vi]": "Martin Flöser, Vlad Zahorodnii",
                "Name[x-test]": "xxMartin Flöser, Vlad Zahorodniixx"
            }
        ],
        "Category": "Focus",
        "Description": "Darkens the entire screen when requesting root privileges",
        "Description[ar]": "يعتم كامل الشاشة عند طلب صلاحيات الجذر",
        "Description[bg]": "Екранът затъмнява при необходимост от администраторски права ",
        "Description[ca@valencia]": "Enfosquix tota la pantalla en demanar privilegis d'administrador",
        "Description[ca]": "Enfosqueix tota la pantalla en demanar privilegis d'administrador",
        "Description[es]": "Oscurece toda la pantalla cuando se solicitan privilegios de «root»",
        "Description[et]": "Tumendab administraatori õiguste nõudmisel kogu ekraani",
        "Description[eu]": "«root»aren pribilegioak eskatzean pantaila osoa iluntzen du",
        "Description[fr]": "Assombrir la totalité de l'écran quand les privilèges d'administrateur sont nécessaires",
        "Description[it]": "Scurisce tutto lo schermo quando si richiedono i privilegi di root",
        "Description[nl]": "Maakt het volledige scherm donker wanneer er om root-privileges wordt verzocht",
        "Description[pt]": "Escurece o ecrã todo ao pedir privilégios de administração",
        "Description[sl]": "Potemni celoten naslov ob zahtevi za korenske pravice",
        "Description[ta]": "ரூட் உரிமையை கோரும்போது திரை முழுவதையும் இருளாக்கும்",
        "Description[tr]": "Kök ayrıcalıkları isterken tüm ekranın karartır",
        "Description[uk]": "Притлумлює кольори усього екрана, коли працюємо з доступом root",
        "Description[vi]": "Làm tối toàn bộ màn hình khi yêu cầu đặc quyền gốc",
        "Description[x-test]": "xxDarkens the entire screen when requesting root privilegesxx",
        "EnabledByDefault": false,
        "Icon": "preferences-system-windows-effect-dimscreen",
        "Id": "kwin4_effect_dimscreen",
        "License": "GPL",
        "Name": "Dim Screen for Administrator Mode",
        "Name[ar]": "يعتم الشاشة لنمط المدير",
        "Name[bg]": "Затъмняване на екрана в администраторски режим",
        "Name[ca@valencia]": "Enfosquix la pantalla per al mode administrador",
        "Name[ca]": "Enfosqueix la pantalla per al mode administrador",
        "Name[es]": "Oscurecer la pantalla en el modo administrador",
        "Name[et]": "Tuhm ekraan administraatori režiimis",
        "Name[eu]": "Ahuldu pantaila administratzaile modurako",
        "Name[fr]": "Régler l'écran en mode administrateur",
        "Name[it]": "Oscuramento dello schermo in modalità amministrativa",
        "Name[ka]": "ეკრანის ჩაბნელება ადმინისტრატორის რეჟიმისთვის",
        "Name[nl]": "Scherm dimmen voor administratormodus",
        "Name[pt]": "Escurecer o Ecrã para o Modo de Administrador",
        "Name[sl]": "Potemni zaslon za skrbniški način",
        "Name[ta]": "ரூட் பயன்முறைக்கு திரையை இருளாக்கு",
        "Name[tr]": "Yönetici Kipi için Ekranı Karart",
        "Name[uk]": "Притлумлення кольорів у режимі адміністратора",
        "Name[vi]": "Làm tối màn hình cho chế độ quản trị viên",
        "Name[x-test]": "xxDim Screen for Administrator Modexx",
        "Name[zh_CN]": "请求管理员模式时降低屏幕亮度",
        "Version": "1",
        "Website": ""
    },
    "X-KDE-Ordering": "60",
    "X-KDE-ParentApp": "",
    "X-KWin-Video-Url": "https://files.kde.org/plasma/kwin/effect-videos/dim_administration.mp4",
    "X-Plasma-API": "javascript",
    "X-Plasma-MainScript": "code/main.js"
}
